ISSS608-VAA - Take-home_Ex02
…
Code

degree_table_all %>% group_by(id, year)

# A tibble: 4,096 × 9
# Groups:   id, year [4,096]
   id           year wt_in_degree wt_out_degree wt_combined in_degree out_degree
   <chr>       <dbl>        <dbl>         <dbl>       <dbl>     <dbl>      <dbl>
 1 1 Ltd. Lia…  2028            0            68          68         0          1
 2 4 S.A. de …  2028            0            24          24         0          1
 3 9 Charter …  2028            0            61          61         0          2
 4 Adriatic C…  2028            0            30          30         0          1
 5 Adriatic T…  2028            0            43          43         0          2
 6 Adriatic T…  2028            0           116         116         0          1
 7 Adriatic T…  2028          124           478         602         3          6
 8 Amerigo Do…  2028            0            42          42         0          1
 9 Ancla de O…  2028            0            50          50         0          1
10 Andhra Pra…  2028            0            40          40         0          1
# ℹ 4,086 more rows
# ℹ 2 more variables: combined <dbl>, group <chr>
…
