ISSS608-VAA - Take-home Exercise 3
…
Using LDA Topic Model to extract companies with fishing related services

From the descriptions of the companies, it is important for us to know which companies are indeed related to fishing. A naive way is to manually filter the descriptions that contains words that may be related to fishing such as through the code chunk below. However, we only managed to sort out about 1,000 companies.

Code

MC3_nodes %>%
  filter(grepl("fish|seafood|salmon|crab|carp|tuna", description, ignore.case = TRUE))

# A tibble: 981 × 5
   id                                        countries types revenue description
   <chr>                                     <chr>     <chr>   <dbl> <chr>      
 1 2 Flounder ОАО Consultants                Oceanus   Comp…  10387. Sauce and …
 2 2 Limited Liability Company               Marebak,… Comp…     NA  Canning, p…
 3 9 Charter Boat  Plc Overseas              Marebak   Comp…  36658. Fish and f…
 4 Acosta, Proctor and Meyers                ZH        Comp…   7226. Frozen veg…
 5 Adair S.A. de C.V.                        Mawazam   Comp…  33309. Frozen cep…
 6 Adams Group                               ZH, ZH, … Comp…     NA  A range of…
 7 Adkins LLC                                ZH, ZH, … Comp…     NA  Frozen sea…
 8 Adriatic Mackerel N.V. Transport          Nalakond  Comp… 113379. Fish and s…
 9 Adriatic Squid AS Holdings                Nalakond  Comp…  16452. Canned sea…
10 Adriatic Squid Limited Liability Company… Oceanus   Comp…  24067. Fresh, cur…
# ℹ 971 more rows
…
Code

temp <- MC3_graph_largest %>%
  activate(nodes) %>%
  as.tibble() 
temp %>%
  group_by(sub_community) %>%
  summarise(count = n()) %>%
  arrange(desc(count)) %>%
  filter(count >1)

# A tibble: 646 × 2
   sub_community count
   <fct>         <int>
 1 1               122
 2 2                96
 3 3                74
 4 4                64
 5 5                62
 6 6                54
 7 7                53
 8 8                52
 9 9                51
10 10               50
# ℹ 636 more rows
…
Code

temp <- MC3_graph_largest %>%
  activate(nodes) %>%
  as.tibble() 
temp %>%
  group_by(sub_community) %>%
  summarise(count = n()) %>%
  arrange(desc(count)) %>%
  filter(count >1)

# A tibble: 594 × 2
   sub_community count
   <fct>         <int>
 1 1                95
 2 2                73
 3 3                59
 4 4                54
 5 5                52
 6 6                51
 7 7                49
 8 8                47
 9 9                47
10 10               47
# ℹ 584 more rows
…
From the table below, we can tell that about 700 companies are actually connected in some ways with each other while the rest make up small networks among themselves. We will investigate the large network in more detail to see if any insights can be drawn.

temp <- MC3_graph_links %>%
  activate(nodes) %>%
  as.tibble() 
temp %>%
  group_by(community) %>%
  summarise(count = n()) %>%
  arrange(desc(count))

# A tibble: 5,431 × 2
   community count
   <fct>     <int>
 1 1           733
 2 2            32
 3 3            16
 4 4            15
 5 5            13
 6 6            13
 7 7            12
 8 8            12
 9 9            12
10 10           11
# ℹ 5,421 more rows
…
Code

temp <- MC3_graph_links_largest %>%
  activate(nodes) %>%
  as.tibble()
temp %>%
  group_by(sub_community) %>%
  summarise(count = n()) %>%
  arrange(desc(count))

# A tibble: 28 × 2
   sub_community count
   <fct>         <int>
 1 1                45
 2 2                43
 3 3                42
 4 4                41
 5 5                35
 6 6                33
 7 7                33
 8 8                32
 9 9                32
10 10               32
# ℹ 18 more rows
…
Code

temp <- MC3_graph_similarity %>%
  activate(nodes) %>%
  as.tibble() 
temp %>%
  group_by(community) %>%
  summarise(count = n(),
            pct_Fishing = as.integer(sum(topic == "Fishing")/count*100),
            pct_Others = as.integer(sum(topic == "Others")/count*100)) %>%
  arrange(desc(count))

# A tibble: 222 × 4
   community count pct_Fishing pct_Others
   <fct>     <int>       <int>      <int>
 1 1            65         100          0
 2 2            52         100          0
 3 3            38          42         57
 4 4            35         100          0
 5 5            24          45         54
 6 6            22         100          0
 7 7            19         100          0
 8 8            19         100          0
 9 9            17         100          0
10 10           17          58         41
# ℹ 212 more rows
…
