ISSS608-VAA - Take Home Exercise 1
…
scales

pacman::p_load(plotly, ggstatsplot, knitr, patchwork, ggdist, ggthemes, tidyverse, lubridate, zoo, scales)

2.2 Importing the Data

The following code chunk uses the read_csv function to import the necessary csv files and assign them to the relevant variables.

Financial <- read_csv("data/FinancialJournal.csv")
Demographic <- read_csv("data/Participants.csv")

Financial

# A tibble: 1,513,636 × 4
   participantId timestamp           category  amount
           <dbl> <dttm>              <chr>      <dbl>
 1             0 2022-03-01 00:00:00 Wage      2473. 
 2             0 2022-03-01 00:00:00 Shelter   -555. 
 3             0 2022-03-01 00:00:00 Education  -38.0
 4             1 2022-03-01 00:00:00 Wage      2047. 
 5             1 2022-03-01 00:00:00 Shelter   -555. 
 6             1 2022-03-01 00:00:00 Education  -38.0
 7             2 2022-03-01 00:00:00 Wage      2437. 
 8             2 2022-03-01 00:00:00 Shelter   -557. 
 9             2 2022-03-01 00:00:00 Education  -12.8
10             3 2022-03-01 00:00:00 Wage      2367. 
# ℹ 1,513,626 more rows

Demographic

# A tibble: 1,011 × 7
   participantId householdSize haveKids   age educationLevel      interestGroup
           <dbl>         <dbl> <lgl>    <dbl> <chr>               <chr>        
 1             0             3 TRUE        36 HighSchoolOrCollege H            
 2             1             3 TRUE        25 HighSchoolOrCollege B            
 3             2             3 TRUE        35 HighSchoolOrCollege A            
 4             3             3 TRUE        21 HighSchoolOrCollege I            
 5             4             3 TRUE        43 Bachelors           H            
 6             5             3 TRUE        32 HighSchoolOrCollege D            
 7             6             3 TRUE        26 HighSchoolOrCollege I            
 8             7             3 TRUE        27 Bachelors           A            
 9             8             3 TRUE        20 Bachelors           G            
10             9             3 TRUE        35 Bachelors           D            
# ℹ 1,001 more rows
# ℹ 1 more variable: joviality <dbl>
…
While no missing values were found in both data sets using is.na, some participants were found to have significantly lower number of transactions.

sum(is.na(Fin_cleaned))

[1] 0

sum(is.na(Demo_cleaned))

[1] 0

pax_txn_count <- Fin_cleaned %>% count(participantId, sort = TRUE)
pax_txn_count %>% arrange(n)

# A tibble: 1,011 × 2
   participantId     n
   <fct>         <int>
 1 653              11
 2 875              11
 3 346              12
 4 279              13
 5 44               14
 6 794              14
 7 846              14
 8 856              14
 9 867              14
10 553              15
# ℹ 1,001 more rows
…
2.3.5 Aggregate Statistics for Analysis

The Financial Journal data is segregated by individual transaction entries which are not useful for analysis. Furthermore, the demographic information should also be combined with the financial information.

Fin_cleaned_agg <- Fin_cleaned %>% 
  group_by(participantId, month_year, category) %>%
  summarize(value_sum = sum(amount)) %>%
  pivot_wider(names_from = c(month_year, category), values_from = value_sum)
Fin_cleaned_agg[is.na(Fin_cleaned_agg)] <- 0
Fin_cleaned_agg

# A tibble: 880 × 61
# Groups:   participantId [880]
   participantId `2022/03_Education` `2022/03_Food` `2022/03_Recreation`
   <fct>                       <dbl>          <dbl>                <dbl>
 1 0                           -38.0          -268.                -349.
 2 1                           -38.0          -289.               -1048.
 3 2                           -12.8          -290.                -431.
 4 3                           -38.0          -292.                -454.
 5 4                           -12.8          -300.               -1345.
 6 5                           -12.8          -354.                -526.
 7 6                           -12.8          -350.               -1014.
 8 7                           -12.8          -483.               -1003.
 9 8                           -12.8          -493.                -655.
10 9                           -91.1          -301.                -423.
# ℹ 870 more rows
# ℹ 57 more variables: `2022/03_Shelter` <dbl>, `2022/03_Wage` <dbl>,
#   `2022/04_Education` <dbl>, `2022/04_Food` <dbl>,
#   `2022/04_Recreation` <dbl>, `2022/04_Shelter` <dbl>, `2022/04_Wage` <dbl>,
#   `2022/05_Education` <dbl>, `2022/05_Food` <dbl>,
#   `2022/05_Recreation` <dbl>, `2022/05_Shelter` <dbl>, `2022/05_Wage` <dbl>,
#   `2022/06_Education` <dbl>, `2022/06_Food` <dbl>, …
…
months <- unique(sub("_.*", "", names(Fin_cleaned_agg)[-1]))

for (month in months) {
  col_name <- paste0(month, "_FinHealth")
  Fin_cleaned_agg[col_name] <- rowSums(Fin_cleaned_agg[, grepl(paste0("^", month), names(Fin_cleaned_agg))])
}

for (month in months) {
  col_name <- paste0(month, "_Expenses")
  Fin_cleaned_agg[col_name] <- Fin_cleaned_agg[[paste0(month, "_FinHealth")]] - Fin_cleaned_agg[[paste0(month, "_Wage")]]
}

Fin_cleaned_agg[, grepl("2023/01", names(Fin_cleaned_agg))]

# A tibble: 880 × 7
   `2023/01_Education` `2023/01_Food` `2023/01_Recreation` `2023/01_Shelter`
                 <dbl>          <dbl>                <dbl>             <dbl>
 1               -38.0          -265.                -210.             -555.
 2               -38.0          -266.                -329.             -555.
 3               -12.8          -313.                -245.             -557.
 4               -38.0          -290.                -223.             -555.
 5               -12.8          -275.                -451.            -1002.
 6               -12.8          -371.                -476.             -600.
 7               -12.8          -298.                -375.             -581.
 8               -12.8          -529.                -380.            -1013.
 9               -12.8          -511.                -510.            -1180.
10               -91.1          -288.                -343.             -558.
# ℹ 870 more rows
# ℹ 3 more variables: `2023/01_Wage` <dbl>, `2023/01_FinHealth` <dbl>,
#   `2023/01_Expenses` <dbl>
…
